<svg width="39" height="15" viewBox="0 0 39 15" fill="none" xmlns="http://www.w3.org/2000/svg">
<path d="M37.5 15H7.5C7.2 15 7 14.9 6.8 14.7L0.3 8.2C-0.1 7.8 -0.1 7.2 0.3 6.8L6.8 0.3C7 0.1 7.2 0 7.5 0H37.5C38.1 0 38.5 0.4 38.5 1V14C38.5 14.6 38.1 15 37.5 15ZM8.3 13H35.5C36.1 13 36.5 12.6 36.5 12V3C36.5 2.4 36.1 2 35.5 2H8.3C8.1 2 7.8 2.1 7.6 2.3L3.1 6.8C2.7 7.2 2.7 7.8 3.1 8.2L7.6 12.7C7.8 12.9 8.1 13 8.3 13Z" fill="#FE5F55"/>
</svg>
