<svg width="9" height="20" viewBox="0 0 9 20" fill="none" xmlns="http://www.w3.org/2000/svg">
<path d="M0 19.2783V6.31625L5.45143 0.949158L6.89143 2.36688L2.05714 7.12637V14.4175L6.89143 9.55675L8.43429 11.0757L0 19.2783Z" fill="#555555"/>
</svg>
