<svg width="12" height="12" viewBox="0 0 12 12" fill="none" xmlns="http://www.w3.org/2000/svg">
<path d="M2.05714 12.0001H0C0 7.54445 3.70286 3.89888 8.22857 3.89888H9.25714V0.860901H11.3143V5.92419H8.22857C4.83429 5.92419 2.05714 8.65837 2.05714 12.0001Z" fill="#555555"/>
</svg>
