<svg width="3" height="5" viewBox="0 0 3 5" fill="none" xmlns="http://www.w3.org/2000/svg">
<path d="M1.5 5C0.9 5 0.5 4.6 0.5 4V1C0.5 0.4 0.9 0 1.5 0C2.1 0 2.5 0.4 2.5 1V4C2.5 4.6 2.1 5 1.5 5Z" fill="#555555"/>
</svg>
